<?xml version="1.0" encoding="UTF-8" standalone="no"?>
<!-- Created with Inkscape (http://www.inkscape.org/) -->

<svg
   xmlns:dc="http://purl.org/dc/elements/1.1/"
   xmlns:cc="http://creativecommons.org/ns#"
   xmlns:rdf="http://www.w3.org/1999/02/22-rdf-syntax-ns#"
   xmlns:svg="http://www.w3.org/2000/svg"
   xmlns="http://www.w3.org/2000/svg"
   xmlns:sodipodi="http://sodipodi.sourceforge.net/DTD/sodipodi-0.dtd"
   xmlns:inkscape="http://www.inkscape.org/namespaces/inkscape"
   width="55.698971mm"
   height="36.054665mm"
   viewBox="0 0 55.698971 36.054665"
   version="1.1"
   id="svg8"
   inkscape:version="0.92.3 (2405546, 2018-03-11)"
   sodipodi:docname="arrow-white.svg">
  <defs
     id="defs2">
    <inkscape:perspective
       sodipodi:type="inkscape:persp3d"
       inkscape:vp_x="56.274381 : 111.50856 : 1"
       inkscape:vp_y="-594.1878 : 51.008814 : 0"
       inkscape:vp_z="73.459848 : 311.69737 : 1"
       inkscape:persp3d-origin="94.279412 : 209.07803 : 1"
       id="perspective3715" />
  </defs>
  <sodipodi:namedview
     id="base"
     pagecolor="#ffffff"
     bordercolor="#666666"
     borderopacity="1.0"
     inkscape:pageopacity="0.0"
     inkscape:pageshadow="2"
     inkscape:zoom="2.8"
     inkscape:cx="109.17843"
     inkscape:cy="69.229994"
     inkscape:document-units="mm"
     inkscape:current-layer="layer1"
     showgrid="false"
     inkscape:window-width="1600"
     inkscape:window-height="837"
     inkscape:window-x="-8"
     inkscape:window-y="-8"
     inkscape:window-maximized="1" />
  <metadata
     id="metadata5">
    <rdf:RDF>
      <cc:Work
         rdf:about="">
        <dc:format>image/svg+xml</dc:format>
        <dc:type
           rdf:resource="http://purl.org/dc/dcmitype/StillImage" />
        <dc:title></dc:title>
      </cc:Work>
    </rdf:RDF>
  </metadata>
  <g
     inkscape:label="Ebene 1"
     inkscape:groupmode="layer"
     id="layer1"
     transform="translate(-51.520291,-14.483824)">
    <g
       id="g4658"
       style="fill:#e6e6e6;stroke:#e6e6e6;stroke-opacity:1">
      <g
         id="g4653"
         style="fill:#e6e6e6;stroke:#e6e6e6;stroke-opacity:1">
        <rect
           style="fill:#e6e6e6;stroke:#e6e6e6;stroke-width:0.22959176;stroke-opacity:1"
           id="rect4619"
           width="11.374277"
           height="39.155529"
           x="20.501595"
           y="52.588692"
           transform="rotate(-45)" />
        <rect
           style="fill:#e6e6e6;stroke:#e6e6e6;stroke-width:0.22959176;stroke-opacity:1"
           id="rect4619-8"
           width="11.374277"
           height="39.155533"
           x="-91.744217"
           y="-59.657127"
           transform="matrix(-0.70710678,-0.70710678,-0.70710678,0.70710678,0,0)" />
      </g>
    </g>
  </g>
</svg>
