<?xml version="1.0" encoding="UTF-8" standalone="no"?>
<svg
   xmlns:dc="http://purl.org/dc/elements/1.1/"
   xmlns:cc="http://creativecommons.org/ns#"
   xmlns:rdf="http://www.w3.org/1999/02/22-rdf-syntax-ns#"
   xmlns:svg="http://www.w3.org/2000/svg"
   xmlns="http://www.w3.org/2000/svg"
   xmlns:sodipodi="http://sodipodi.sourceforge.net/DTD/sodipodi-0.dtd"
   xmlns:inkscape="http://www.inkscape.org/namespaces/inkscape"
   width="195.06055"
   height="233.90471"
   id="svg3009"
   version="1.1"
   inkscape:version="0.92.3 (2405546, 2018-03-11)"
   sodipodi:docname="HB_HalfHorizCourt_BenchRight_00.svg">
  <metadata
     id="metadata3031">
    <rdf:RDF>
      <cc:Work
         rdf:about="">
        <dc:format>image/svg+xml</dc:format>
        <dc:type
           rdf:resource="http://purl.org/dc/dcmitype/StillImage" />
        <dc:title />
      </cc:Work>
    </rdf:RDF>
  </metadata>
  <defs
     id="defs3029" />
  <sodipodi:namedview
     pagecolor="#ffffff"
     bordercolor="#666666"
     borderopacity="1"
     objecttolerance="10"
     gridtolerance="10"
     guidetolerance="10"
     inkscape:pageopacity="0"
     inkscape:pageshadow="2"
     inkscape:window-width="1920"
     inkscape:window-height="1017"
     id="namedview3027"
     showgrid="false"
     inkscape:zoom="31.466666"
     inkscape:cx="149.50539"
     inkscape:cy="117.88396"
     inkscape:window-x="-8"
     inkscape:window-y="-8"
     inkscape:window-maximized="1"
     inkscape:current-layer="svg3009"
     inkscape:measure-start="126.56,21.393"
     inkscape:measure-end="126.01,64.2667" />
  <!-- Created with SVG-edit - http://svg-edit.googlecode.com/ -->
  <rect
     style="opacity:1;fill:#000000;fill-opacity:0.97969546;stroke:#000000;stroke-width:0.13173443;stroke-linejoin:round;stroke-miterlimit:4;stroke-dasharray:none;stroke-dashoffset:0;stroke-opacity:1;paint-order:markers fill stroke"
     id="rect5125"
     width="233.77298"
     height="194.92882"
     x="0.065867215"
     y="-194.99469"
     transform="rotate(90)" />
  <rect
     style="fill:#91bdfc;fill-opacity:1;stroke:#ffffff;stroke-width:0.90272719;stroke-miterlimit:4;stroke-dasharray:none;stroke-opacity:1"
     id="rect3015"
     x="10.050137"
     y="-183.2859"
     width="213.4306"
     height="173.76958"
     transform="rotate(90)" />
  <line
     style="stroke:#ffffff;stroke-width:1.06666672;stroke-opacity:1"
     id="line3019"
     x1="140.5706"
     y1="115.69877"
     x2="140.5706"
     y2="117.83211" />
  <line
     style="stroke:#ffffff;stroke-width:1.06666672;stroke-opacity:1"
     id="line3021"
     x1="108.5706"
     y1="111.4321"
     x2="108.5706"
     y2="122.09877" />
  <path
     style="fill:none;stroke:#ffffff;stroke-width:1.06666672;stroke-dasharray:5.33333333, 5.33333333;stroke-opacity:1"
     inkscape:connector-curvature="0"
     id="path3025"
     d="M 152.30394,10.098739 A 96,96 0 0 0 87.237272,106.09874 v 32 a 96,96 0 0 0 65.066668,85.33334" />
  <path
     style="fill:#91bdfc;fill-opacity:1;stroke:#ffffff;stroke-width:1.06666672;stroke-opacity:1"
     inkscape:connector-curvature="0"
     id="path3023"
     d="m 183.23727,36.765435 a 64,64 0 0 0 -64,64.000005 v 32 a 64,64 0 0 0 64,64" />
  <line
     style="stroke:#ffffff;stroke-width:1.06666672;stroke-opacity:1"
     id="line3021-9"
     x1="16.816595"
     y1="218.72745"
     x2="16.816595"
     y2="229.39412" />
  <line
     style="fill:#ffffff;fill-opacity:1;stroke:#ffffff;stroke-width:2.13333344;stroke-opacity:1"
     id="line3017"
     x1="183.23727"
     y1="100.76543"
     x2="183.23727"
     y2="132.76544" />
  <line
     style="stroke:#ffffff;stroke-width:0.84329247;stroke-opacity:1"
     id="line3021-8"
     x1="140.5706"
     y1="113.466"
     x2="140.5706"
     y2="120.133" />
  <g
     transform="translate(0.19862512,-0.63999978)"
     id="g5257">
    <circle
       transform="rotate(90)"
       style="fill:none;stroke:#ffffff;stroke-width:0.8560676;stroke-linejoin:round;stroke-miterlimit:10;stroke-opacity:0.58673473"
       stroke-miterlimit="10"
       cx="72.447296"
       cy="-157.32089"
       r="4.351635"
       id="circle1024" />
    <polygon
       transform="matrix(0,0.31270731,-0.31270731,0,178.70665,62.280553)"
       style="fill:none;stroke:#ffffff;stroke-width:2.61560011;stroke-linejoin:round;stroke-miterlimit:10;stroke-opacity:0.58673473"
       stroke-miterlimit="10"
       points="88.694,44.672 60.384,44.672 74.539,20.156 "
       id="polygon1026" />
    <g
       style="stroke:#ffffff;stroke-opacity:0.58673473"
       transform="matrix(0,0.31270731,-0.31270731,0,178.70665,62.280553)"
       id="fletcha">
      <g
         style="stroke:#ffffff;stroke-opacity:0.58673473"
         id="g1033">
        <path
           id="path1029"
           d="m 31.086,31.745 c 12.608,5.693 22.817,16.55 27.25,30.798 1.676,5.388 2.397,10.845 2.26,16.187"
           stroke-miterlimit="10"
           inkscape:connector-curvature="0"
           style="fill:none;stroke:#ffffff;stroke-width:3;stroke-linecap:round;stroke-linejoin:round;stroke-miterlimit:10;stroke-opacity:0.58673473" />
        <polyline
           id="polyline1031"
           points="    37.223,44.662 29.319,30.625 45.429,30.799   "
           stroke-miterlimit="10"
           style="fill:none;stroke:#ffffff;stroke-width:3;stroke-linecap:round;stroke-linejoin:round;stroke-miterlimit:10;stroke-opacity:0.58673473" />
      </g>
    </g>
    <g
       id="g5201">
      <g
         id="marc"
         transform="matrix(0,0.31270731,-0.31270731,0,178.70665,62.280553)"
         style="fill:#ffffff;fill-opacity:0.58823529;stroke:none;stroke-opacity:0.58673473">
        <g
           id="g1021"
           style="fill:#ffffff;fill-opacity:0.58823529;stroke:none;stroke-opacity:0.58673473">
          <path
             style="fill:#ffffff;fill-opacity:0.58823529;stroke:none;stroke-opacity:0.58673473"
             inkscape:connector-curvature="0"
             d="M 49.878,2.757 C 75.861,2.757 97,23.896 97,49.878 97,75.861 75.861,97 49.878,97 23.895,97 2.756,75.861 2.756,49.878 2.756,23.896 23.895,2.757 49.878,2.757 m 0,-3 c -27.682,0 -50.122,22.44 -50.122,50.121 C -0.244,77.56 22.196,100 49.878,100 77.559,100 100,77.561 100,49.878 100,22.198 77.559,-0.243 49.878,-0.243 Z"
             id="path1019" />
        </g>
      </g>
      <text
         id="text8"
         x="62.673233"
         y="-140.50847"
         style="font-size:11.91496563px;fill:#ffffff;fill-opacity:0.58823529;stroke:none;stroke-width:0.99291384;stroke-opacity:1"
         transform="rotate(90)">
        <tspan
           style="font-style:normal;font-variant:normal;font-weight:normal;font-stretch:normal;font-size:8px;font-family:sans-serif;-inkscape-font-specification:sans-serif;fill:#ffffff;fill-opacity:0.58823529;stroke:none;stroke-width:0.99291384;stroke-opacity:1"
           x="62.673233"
           y="-140.50847"
           font-size="8.0156"
           id="tspan4">TAC</tspan>
        <tspan
           style="font-style:normal;font-variant:normal;font-weight:bold;font-stretch:normal;font-size:8px;font-family:sans-serif;-inkscape-font-specification:'sans-serif Bold';fill:#ffffff;fill-opacity:0.58823529;stroke:none;stroke-width:0.33163321;stroke-miterlimit:10;stroke-opacity:1"
           x="78.151772"
           y="-140.50847"
           stroke-miterlimit="10"
           font-size="8.0156"
           id="tspan6">Brd</tspan>
      </text>
      <g
         id="g5063-5"
         transform="matrix(1.2786533,0,0,1.2786533,-43.030977,56.717425)">
        <g
           style="fill:#ffffff;fill-opacity:0.58823529;stroke:none;stroke-opacity:0.58673473"
           transform="matrix(0,0.24455989,-0.24455989,0,173.41497,65.656228)"
           id="marc-5">
          <g
             style="fill:#ffffff;fill-opacity:0.58823529;stroke:none;stroke-opacity:0.58673473"
             id="g1021-2">
            <path
               id="path1019-1"
               d="M 49.878,2.757 C 75.861,2.757 97,23.896 97,49.878 97,75.861 75.861,97 49.878,97 23.895,97 2.756,75.861 2.756,49.878 2.756,23.896 23.895,2.757 49.878,2.757 m 0,-3 c -27.682,0 -50.122,22.44 -50.122,50.121 C -0.244,77.56 22.196,100 49.878,100 77.559,100 100,77.561 100,49.878 100,22.198 77.559,-0.243 49.878,-0.243 Z"
               inkscape:connector-curvature="0"
               style="fill:#ffffff;fill-opacity:0.58823529;stroke:none;stroke-opacity:0.58673473" />
          </g>
        </g>
        <circle
           transform="rotate(90)"
           style="fill:none;stroke:#ffffff;stroke-width:0.66950721;stroke-linejoin:round;stroke-miterlimit:10;stroke-opacity:0.58673473"
           stroke-miterlimit="10"
           cx="73.607361"
           cy="-156.68976"
           r="3.4032955"
           id="circle1024-8" />
        <polygon
           transform="matrix(0,0.24455989,-0.24455989,0,173.41497,65.656228)"
           style="fill:none;stroke:#ffffff;stroke-width:2.61560011;stroke-linejoin:round;stroke-miterlimit:10;stroke-opacity:0.58673473"
           stroke-miterlimit="10"
           points="88.694,44.672 60.384,44.672 74.539,20.156 "
           id="polygon1026-6" />
        <g
           style="stroke:#ffffff;stroke-opacity:0.58673473"
           transform="matrix(0,0.24455989,-0.24455989,0,173.41497,65.656228)"
           id="fletcha-2">
          <g
             style="stroke:#ffffff;stroke-opacity:0.58673473"
             id="g1033-2">
            <path
               id="path1029-1"
               d="m 31.086,31.745 c 12.608,5.693 22.817,16.55 27.25,30.798 1.676,5.388 2.397,10.845 2.26,16.187"
               stroke-miterlimit="10"
               inkscape:connector-curvature="0"
               style="fill:none;stroke:#ffffff;stroke-width:3;stroke-linecap:round;stroke-linejoin:round;stroke-miterlimit:10;stroke-opacity:0.58673473" />
            <polyline
               id="polyline1031-0"
               points="    37.223,44.662 29.319,30.625 45.429,30.799   "
               stroke-miterlimit="10"
               style="fill:none;stroke:#ffffff;stroke-width:3;stroke-linecap:round;stroke-linejoin:round;stroke-miterlimit:10;stroke-opacity:0.58673473" />
          </g>
        </g>
        <text
           transform="rotate(90)"
           style="font-size:9.31837082px;fill:#ffffff;fill-opacity:0.58823529;stroke:none;stroke-width:0.77653092;stroke-opacity:1"
           y="-143.54121"
           x="65.963333"
           id="text8-1">
          <tspan
             id="tspan4-9"
             font-size="8.0156"
             y="-143.54121"
             x="65.963333"
             style="font-style:normal;font-variant:normal;font-weight:normal;font-stretch:normal;font-size:6.22436142px;font-family:sans-serif;-inkscape-font-specification:sans-serif;fill:#ffffff;fill-opacity:0.58823529;stroke:none;stroke-width:0.77653092;stroke-opacity:1">TAC</tspan>
          <tspan
             id="tspan6-0"
             font-size="8.0156"
             stroke-miterlimit="10"
             y="-143.54121"
             x="78.06868"
             style="font-style:normal;font-variant:normal;font-weight:bold;font-stretch:normal;font-size:6.22436142px;font-family:sans-serif;-inkscape-font-specification:'sans-serif Bold';fill:#ffffff;fill-opacity:0.58823529;stroke:none;stroke-width:0.25936133;stroke-miterlimit:10;stroke-opacity:1">Brd</tspan>
        </text>
      </g>
    </g>
  </g>
</svg>
