<?xml version="1.0" encoding="UTF-8" standalone="no"?>
<!-- Created with Inkscape (http://www.inkscape.org/) -->

<svg
   xmlns:dc="http://purl.org/dc/elements/1.1/"
   xmlns:cc="http://creativecommons.org/ns#"
   xmlns:rdf="http://www.w3.org/1999/02/22-rdf-syntax-ns#"
   xmlns:svg="http://www.w3.org/2000/svg"
   xmlns="http://www.w3.org/2000/svg"
   xmlns:sodipodi="http://sodipodi.sourceforge.net/DTD/sodipodi-0.dtd"
   xmlns:inkscape="http://www.inkscape.org/namespaces/inkscape"
   width="100mm"
   height="100mm"
   viewBox="0 0 100 100"
   version="1.1"
   id="svg8"
   sodipodi:docname="Icon_Save.svg"
   inkscape:version="0.92.3 (2405546, 2018-03-11)">
  <defs
     id="defs2" />
  <sodipodi:namedview
     id="base"
     pagecolor="#5b5b5b"
     bordercolor="#666666"
     borderopacity="1.0"
     inkscape:pageopacity="0.0"
     inkscape:pageshadow="2"
     inkscape:zoom="1.4"
     inkscape:cx="155.86102"
     inkscape:cy="166.25524"
     inkscape:document-units="mm"
     inkscape:current-layer="layer1"
     showgrid="false"
     inkscape:window-width="1600"
     inkscape:window-height="837"
     inkscape:window-x="-8"
     inkscape:window-y="-8"
     inkscape:window-maximized="1" />
  <metadata
     id="metadata5">
    <rdf:RDF>
      <cc:Work
         rdf:about="">
        <dc:format>image/svg+xml</dc:format>
        <dc:type
           rdf:resource="http://purl.org/dc/dcmitype/StillImage" />
        <dc:title></dc:title>
      </cc:Work>
    </rdf:RDF>
  </metadata>
  <g
     inkscape:label="Ebene 1"
     inkscape:groupmode="layer"
     id="layer1"
     transform="translate(-26.060122,-87.284518)">
    <rect
       style="fill:none;fill-opacity:1;stroke:#9f6060;stroke-width:0;stroke-miterlimit:4;stroke-dasharray:none;stroke-opacity:1"
       id="rect1453"
       width="99.613289"
       height="99.613289"
       x="26.520748"
       y="87.477875" />
    <g
       transform="matrix(0.26458333,0,0,0.26458333,9.7050935,73.442104)"
       id="g6"
       style="fill:#5b5b5b;fill-opacity:1;stroke:none;stroke-opacity:1">
      <path
         inkscape:connector-curvature="0"
         id="path4"
         d="m 426.2,143.3 c -0.5,-12.4 -4.5,-15.3 -15.1,-15.3 0,0 -121.4,0 -143.2,0 -21.8,0 -24.4,0.3 -40.9,-17.4 C 213.3,95.8 218.7,96 190.4,96 c -22.6,0 -75.3,0 -75.3,0 -17.4,0 -23.6,-1.5 -25.2,16.6 -1.5,16.7 -5,57.2 -5.5,63.4 h 343.4 z"
         style="fill:#5b5b5b;fill-opacity:1;stroke:none;stroke-opacity:1" />
    </g>
    <path
       inkscape:connector-curvature="0"
       id="path2"
       d="M 118.35434,124.0113 H 35.994295 c -4.186596,0 -4.399474,2.17609 -4.162942,4.84888 l 3.074901,43.28515 c 0.212877,2.64914 0.827858,4.84888 4.9908,4.84888 h 74.791056 c 4.25755,0 4.75427,-2.17608 4.9908,-4.84888 l 2.86202,-43.82917 c 0.21289,-2.64915 0,-4.30486 -4.18659,-4.30486 z"
       style="stroke-width:0.23653084;fill:#5b5b5b;fill-opacity:1;stroke:none;stroke-opacity:1" />
    <g
       id="g2015"
       transform="matrix(1,0,0,-1,0.37797619,275.62649)">
      <path
         inkscape:connector-curvature="0"
         id="path846"
         d="M 76.854537,131.93048 V 176.9399"
         style="fill:none;stroke:#000013;stroke-width:6.04845428;stroke-linecap:butt;stroke-linejoin:miter;stroke-miterlimit:4;stroke-dasharray:none;stroke-opacity:1" />
      <path
         inkscape:connector-curvature="0"
         id="path848"
         d="M 89.804457,147.79353 76.854537,131.93048"
         style="fill:none;stroke:#000013;stroke-width:5.94584894;stroke-linecap:round;stroke-linejoin:miter;stroke-miterlimit:4;stroke-dasharray:none;stroke-opacity:1" />
      <path
         inkscape:connector-curvature="0"
         id="path848-0"
         d="M 63.90462,147.79353 76.854537,131.93048"
         style="fill:none;stroke:#000013;stroke-width:5.94584894;stroke-linecap:round;stroke-linejoin:miter;stroke-miterlimit:4;stroke-dasharray:none;stroke-opacity:1" />
    </g>
  </g>
</svg>
