<?xml version="1.0" encoding="UTF-8" standalone="no"?>
<svg
   xmlns:dc="http://purl.org/dc/elements/1.1/"
   xmlns:cc="http://creativecommons.org/ns#"
   xmlns:rdf="http://www.w3.org/1999/02/22-rdf-syntax-ns#"
   xmlns:svg="http://www.w3.org/2000/svg"
   xmlns="http://www.w3.org/2000/svg"
   xmlns:sodipodi="http://sodipodi.sourceforge.net/DTD/sodipodi-0.dtd"
   xmlns:inkscape="http://www.inkscape.org/namespaces/inkscape"
   width="233.90472"
   height="449.811"
   id="svg3009"
   version="1.1"
   inkscape:version="0.92.3 (2405546, 2018-03-11)"
   sodipodi:docname="HB_FullCourt_BenchLeft_01.svg">
  <rect
     style="opacity:1;fill:#ffffff;fill-opacity:0.97969546;stroke:#000000;stroke-width:0.20003973;stroke-linejoin:round;stroke-miterlimit:4;stroke-dasharray:none;stroke-dashoffset:0;stroke-opacity:1;paint-order:markers fill stroke"
     id="rect5125"
     width="233.70468"
     height="449.61096"
     x="0.10001986"
     y="0.10001986" />
  <metadata
     id="metadata3031">
    <rdf:RDF>
      <cc:Work
         rdf:about="">
        <dc:format>image/svg+xml</dc:format>
        <dc:type
           rdf:resource="http://purl.org/dc/dcmitype/StillImage" />
        <dc:title />
      </cc:Work>
    </rdf:RDF>
  </metadata>
  <defs
     id="defs3029" />
  <sodipodi:namedview
     pagecolor="#ffffff"
     bordercolor="#666666"
     borderopacity="1"
     objecttolerance="10"
     gridtolerance="10"
     guidetolerance="10"
     inkscape:pageopacity="0"
     inkscape:pageshadow="2"
     inkscape:window-width="1920"
     inkscape:window-height="1017"
     id="namedview3027"
     showgrid="false"
     inkscape:zoom="1.3906433"
     inkscape:cx="46.550667"
     inkscape:cy="268.46089"
     inkscape:window-x="-8"
     inkscape:window-y="-8"
     inkscape:window-maximized="1"
     inkscape:current-layer="svg3009"
     inkscape:measure-start="126.56,21.393"
     inkscape:measure-end="126.01,64.2667" />
  <!-- Created with SVG-edit - http://svg-edit.googlecode.com/ -->
  <rect
     style="fill:#ffffff;fill-opacity:1;stroke:#00001f;stroke-width:1.067;stroke-opacity:1;stroke-miterlimit:4;stroke-dasharray:none"
     id="rect3015"
     x="10.285731"
     y="11.823282"
     width="213.33333"
     height="213.33333" />
  <line
     style="stroke:#ffffff;stroke-width:1.06666672;stroke-opacity:1"
     id="line3019"
     x1="115.88572"
     y1="54.489948"
     x2="118.01906"
     y2="54.489948" />
  <line
     style="stroke:#00002a;stroke-width:1.06666672;stroke-opacity:1"
     id="line3021"
     x1="111.61905"
     y1="86.489952"
     x2="122.28572"
     y2="86.489952" />
  <path
     style="fill:none;stroke:#00002a;stroke-width:1.06666672;stroke-dasharray:5.33333333, 5.33333333000000032;stroke-opacity:1"
     inkscape:connector-curvature="0"
     id="path3025"
     d="m 10.2857,42.756616 a 96,96 0 0 0 96,65.066664 h 32 a 96,96 0 0 0 85.33334,-65.066664" />
  <path
     style="fill:#ffffff;fill-opacity:1;stroke:#00001f;stroke-width:1.06666672;stroke-opacity:1"
     inkscape:connector-curvature="0"
     id="path3023"
     d="m 36.952396,11.823282 a 64,64 0 0 0 64.000004,64 h 32 a 64,64 0 0 0 64,-64" />
  <rect
     style="fill:#ffffff;fill-opacity:1;stroke:#00001f;stroke-width:1.067;stroke-opacity:1;stroke-miterlimit:4;stroke-dasharray:none"
     id="rect3015-4"
     x="10.285731"
     y="-438.2233"
     width="213.33333"
     height="213.33333"
     transform="scale(1,-1)" />
  <line
     style="stroke:#000000;stroke-width:1.06666672"
     id="line3019-9"
     x1="115.88572"
     y1="395.55664"
     x2="118.01906"
     y2="395.55664" />
  <line
     style="stroke:#00002a;stroke-width:1.06666672;stroke-opacity:1"
     id="line3021-4"
     x1="111.61905"
     y1="363.55664"
     x2="122.28572"
     y2="363.55664" />
  <path
     style="fill:#ffffff;fill-opacity:1;stroke:#00001f;stroke-width:1.06666672;stroke-opacity:1"
     inkscape:connector-curvature="0"
     id="path3023-8"
     d="m 36.952397,438.22329 a 64,64 0 0 1 64.000003,-64 h 32 a 64,64 0 0 1 64,64" />
  <line
     style="stroke:#000000;stroke-width:2.13333344;stroke-opacity:1"
     id="line3017-0"
     x1="100.95239"
     y1="438.2233"
     x2="132.95239"
     y2="438.2233" />
  <path
     style="fill:none;stroke:#00002a;stroke-width:1.06700003;stroke-miterlimit:4;stroke-dasharray:5.33499972, 5.33499971999999989;stroke-dashoffset:0;stroke-opacity:1"
     inkscape:connector-curvature="0"
     id="path3025-8"
     d="m 10.2857,407.28995 a 96,96 0 0 1 96,-65.06666 h 32 a 96,96 0 0 1 85.33334,65.06666" />
  <line
     style="stroke:#030000;stroke-width:1.06666672;stroke-opacity:1"
     id="line3021-9"
     x1="4.7274461"
     y1="178.24396"
     x2="15.394118"
     y2="178.24396" />
  <line
     style="stroke:#030000;stroke-width:1.06666672;stroke-opacity:1"
     id="line3021-9-6"
     x1="4.8274674"
     y1="271.64996"
     x2="15.494124"
     y2="271.64996" />
  <line
     style="stroke:#00002a;stroke-width:1.06666672;stroke-opacity:1"
     id="line3019-0"
     x1="115.88568"
     y1="395.19925"
     x2="118.01903"
     y2="395.19925" />
  <line
     style="fill:#ffffff;fill-opacity:1;stroke:#000000;stroke-width:2.13333344;stroke-opacity:1"
     id="line3017"
     x1="100.95239"
     y1="11.823282"
     x2="132.95239"
     y2="11.823282" />
  <path
     style="fill:#91bdfc;fill-opacity:1;stroke:#91bdfc;stroke-width:0;stroke-linejoin:round;stroke-miterlimit:4;stroke-dasharray:none;stroke-dashoffset:8.99792194;stroke-opacity:1"
     d=""
     id="path850"
     inkscape:connector-curvature="0" />
  <line
     style="stroke:#00002a;stroke-width:1.06666672;stroke-opacity:1"
     id="line3019-0-7"
     x1="115.82904"
     y1="52.962399"
     x2="117.96239"
     y2="52.962399" />
  <g
     id="g1291">
    <g
       id="g1125">
      <g
         id="g1087">
        <circle
           style="fill:none;fill-opacity:0.58823529;stroke:#0b0000;stroke-width:0.8560676;stroke-linejoin:round;stroke-miterlimit:10;stroke-opacity:0.58673471"
           stroke-miterlimit="10"
           cx="72.105042"
           cy="36.304558"
           r="4.351635"
           id="circle1024" />
        <polygon
           transform="matrix(0.31270731,0,0,0.31270731,61.938301,14.918802)"
           style="fill:none;fill-opacity:0.58823529;stroke:#0b0000;stroke-width:2.61560011;stroke-linejoin:round;stroke-miterlimit:10;stroke-opacity:0.58673471"
           stroke-miterlimit="10"
           points="60.384,44.672 74.539,20.156 88.694,44.672 "
           id="polygon1026" />
        <g
           style="fill:none;fill-opacity:0.58823529;stroke:#0b0000;stroke-opacity:0.58673471"
           transform="matrix(0.31270731,0,0,0.31270731,61.938301,14.918802)"
           id="fletcha">
          <g
             style="fill:none;fill-opacity:0.58823529;stroke:#0b0000;stroke-opacity:0.58673471"
             id="g1033">
            <path
               id="path1029"
               d="m 31.086,31.745 c 12.608,5.693 22.817,16.55 27.25,30.798 1.676,5.388 2.397,10.845 2.26,16.187"
               stroke-miterlimit="10"
               inkscape:connector-curvature="0"
               style="fill:none;fill-opacity:0.58823529;stroke:#0b0000;stroke-width:3;stroke-linecap:round;stroke-linejoin:round;stroke-miterlimit:10;stroke-opacity:0.58673471" />
            <polyline
               id="polyline1031"
               points="    37.223,44.662 29.319,30.625 45.429,30.799   "
               stroke-miterlimit="10"
               style="fill:none;fill-opacity:0.58823529;stroke:#0b0000;stroke-width:3;stroke-linecap:round;stroke-linejoin:round;stroke-miterlimit:10;stroke-opacity:0.58673471" />
          </g>
        </g>
        <g
           style="fill:#000000;fill-opacity:0.58823529;stroke:none;stroke-opacity:0.58673473"
           transform="matrix(0.31270731,0,0,0.31270731,61.938301,14.918802)"
           id="marc">
          <g
             style="fill:#000000;fill-opacity:0.58823529;stroke:none;stroke-opacity:0.58673473"
             id="g1021">
            <path
               id="path1019"
               d="M 49.878,2.757 C 75.861,2.757 97,23.896 97,49.878 97,75.861 75.861,97 49.878,97 23.895,97 2.756,75.861 2.756,49.878 2.756,23.896 23.895,2.757 49.878,2.757 m 0,-3 c -27.682,0 -50.122,22.44 -50.122,50.121 C -0.244,77.56 22.196,100 49.878,100 77.559,100 100,77.561 100,49.878 100,22.198 77.559,-0.243 49.878,-0.243 Z"
               inkscape:connector-curvature="0"
               style="fill:#000000;fill-opacity:0.58823529;stroke:none;stroke-opacity:0.58673473" />
          </g>
        </g>
        <text
           style="font-size:11.91496563px;fill:#000000;fill-opacity:0.58823529;stroke:none;stroke-width:0.99291384;stroke-opacity:1"
           y="53.116982"
           x="62.330982"
           id="text8-6">
          <tspan
             id="tspan4-6"
             font-size="8.0156"
             y="53.116982"
             x="62.330982"
             style="font-style:normal;font-variant:normal;font-weight:normal;font-stretch:normal;font-size:8px;font-family:sans-serif;-inkscape-font-specification:sans-serif;fill:#000000;fill-opacity:0.58823529;stroke:none;stroke-width:0.99291384;stroke-opacity:1">TAC</tspan>
          <tspan
             id="tspan6-9"
             font-size="8.0156"
             stroke-miterlimit="10"
             y="53.116982"
             x="77.809517"
             style="font-style:normal;font-variant:normal;font-weight:bold;font-stretch:normal;font-size:8px;font-family:sans-serif;-inkscape-font-specification:'sans-serif Bold';fill:#000000;fill-opacity:0.58823529;stroke:none;stroke-width:0.33163321;stroke-miterlimit:10;stroke-opacity:1">Brd</tspan>
        </text>
      </g>
      <g
         id="g1099">
        <g
           style="fill:#000000;fill-opacity:0.58823529;stroke:none;stroke-opacity:0.58673473"
           transform="matrix(0.31270731,0,0,0.31270731,140.32673,14.918806)"
           id="marc-5">
          <g
             style="fill:#000000;fill-opacity:0.58823529;stroke:none;stroke-opacity:0.58673473"
             id="g1021-2">
            <path
               id="path1019-1"
               d="M 49.878,2.757 C 75.861,2.757 97,23.896 97,49.878 97,75.861 75.861,97 49.878,97 23.895,97 2.756,75.861 2.756,49.878 2.756,23.896 23.895,2.757 49.878,2.757 m 0,-3 c -27.682,0 -50.122,22.44 -50.122,50.121 C -0.244,77.56 22.196,100 49.878,100 77.559,100 100,77.561 100,49.878 100,22.198 77.559,-0.243 49.878,-0.243 Z"
               inkscape:connector-curvature="0"
               style="fill:#000000;fill-opacity:0.58823529;stroke:none;stroke-opacity:0.58673473" />
          </g>
        </g>
        <circle
           style="fill:none;fill-opacity:0.58823529;stroke:#100000;stroke-width:0.8560676;stroke-linejoin:round;stroke-miterlimit:10;stroke-opacity:0.58673471"
           stroke-miterlimit="10"
           cx="150.49347"
           cy="36.304554"
           r="4.351635"
           id="circle1024-8" />
        <polygon
           transform="matrix(0.31270731,0,0,0.31270731,140.32673,14.918806)"
           style="fill:none;fill-opacity:0.58823529;stroke:#100000;stroke-width:2.61560011;stroke-linejoin:round;stroke-miterlimit:10;stroke-opacity:0.58673471"
           stroke-miterlimit="10"
           points="74.539,20.156 88.694,44.672 60.384,44.672 "
           id="polygon1026-6" />
        <path
           id="path1029-1"
           d="m 150.04755,24.8457 c 3.94261,1.780242 7.13504,5.175306 8.52127,9.630759 0.5241,1.684867 0.74956,3.391311 0.70672,5.061794"
           stroke-miterlimit="10"
           inkscape:connector-curvature="0"
           style="fill:none;fill-opacity:0.58823529;stroke:#100000;stroke-width:0.93812191;stroke-linecap:round;stroke-linejoin:round;stroke-miterlimit:10;stroke-opacity:0.58673473" />
        <polyline
           transform="matrix(0.31270731,0,0,0.31270731,140.32673,14.918806)"
           id="polyline1031-0"
           points="    37.223,44.662 29.319,30.625 45.429,30.799   "
           stroke-miterlimit="10"
           style="fill:none;fill-opacity:0.58823529;stroke:#000000;stroke-width:3;stroke-linecap:round;stroke-linejoin:round;stroke-miterlimit:10;stroke-opacity:0.58673471" />
        <text
           style="font-size:11.91496563px;fill:#000000;fill-opacity:0.58823529;stroke:none;stroke-width:0.99291384;stroke-opacity:1"
           y="53.116982"
           x="140.71941"
           id="text8-1">
          <tspan
             id="tspan4-9"
             font-size="8.0156"
             y="53.116982"
             x="140.71941"
             style="font-style:normal;font-variant:normal;font-weight:normal;font-stretch:normal;font-size:7.95880032px;font-family:sans-serif;-inkscape-font-specification:sans-serif;fill:#000000;fill-opacity:0.58823529;stroke:none;stroke-width:0.99291384;stroke-opacity:1">TAC</tspan>
          <tspan
             id="tspan6-0"
             font-size="8.0156"
             stroke-miterlimit="10"
             y="53.116982"
             x="156.19795"
             style="font-style:normal;font-variant:normal;font-weight:bold;font-stretch:normal;font-size:7.95880032px;font-family:sans-serif;-inkscape-font-specification:'sans-serif Bold';fill:#000000;fill-opacity:0.58823529;stroke:none;stroke-width:0.33163321;stroke-miterlimit:10;stroke-opacity:1">Brd</tspan>
        </text>
      </g>
    </g>
    <g
       id="g1239">
      <g
         id="g1199">
        <circle
           transform="scale(-1)"
           style="fill:none;fill-opacity:0.58823529;stroke:#080000;stroke-width:0.8560676;stroke-linejoin:round;stroke-miterlimit:10;stroke-opacity:0.58673471"
           stroke-miterlimit="10"
           cx="-161.57141"
           cy="-413.06927"
           r="4.351635"
           id="circle1024-1" />
        <polygon
           transform="matrix(-0.31270731,0,0,-0.31270731,171.73815,434.45502)"
           style="fill:none;fill-opacity:0.58823529;stroke:#080000;stroke-width:2.61560011;stroke-linejoin:round;stroke-miterlimit:10;stroke-opacity:0.58673471"
           stroke-miterlimit="10"
           points="88.694,44.672 60.384,44.672 74.539,20.156 "
           id="polygon1026-7" />
        <path
           id="path1029-2"
           d="m 162.01733,424.52813 c -3.94261,-1.78025 -7.13504,-5.17531 -8.52127,-9.63076 -0.5241,-1.68487 -0.74956,-3.39131 -0.70672,-5.0618"
           stroke-miterlimit="10"
           inkscape:connector-curvature="0"
           style="fill:none;fill-opacity:0.58823529;stroke:#080000;stroke-width:0.93812191;stroke-linecap:round;stroke-linejoin:round;stroke-miterlimit:10;stroke-opacity:0.58673471" />
        <polyline
           transform="matrix(-0.31270731,0,0,-0.31270731,171.73815,434.45502)"
           id="polyline1031-2"
           points="    37.223,44.662 29.319,30.625 45.429,30.799   "
           stroke-miterlimit="10"
           style="fill:none;fill-opacity:0.58823529;stroke:#080000;stroke-width:3;stroke-linecap:round;stroke-linejoin:round;stroke-miterlimit:10;stroke-opacity:0.58673471" />
        <g
           style="fill:#000000;fill-opacity:0.58823529;stroke:none;stroke-opacity:0.58673473"
           transform="matrix(-0.31270731,0,0,-0.31270731,171.73815,434.45502)"
           id="marc-55">
          <g
             style="fill:#000000;fill-opacity:0.58823529;stroke:none;stroke-opacity:0.58673473"
             id="g1021-8">
            <path
               id="path1019-6"
               d="M 49.878,2.757 C 75.861,2.757 97,23.896 97,49.878 97,75.861 75.861,97 49.878,97 23.895,97 2.756,75.861 2.756,49.878 2.756,23.896 23.895,2.757 49.878,2.757 m 0,-3 c -27.682,0 -50.122,22.44 -50.122,50.121 C -0.244,77.56 22.196,100 49.878,100 77.559,100 100,77.561 100,49.878 100,22.198 77.559,-0.243 49.878,-0.243 Z"
               inkscape:connector-curvature="0"
               style="fill:#000000;fill-opacity:0.58823529;stroke:none;stroke-opacity:0.58673473" />
          </g>
        </g>
        <text
           transform="scale(-1)"
           style="font-size:11.91496563px;fill:#000000;fill-opacity:0.58823529;stroke:none;stroke-width:0.99291384;stroke-opacity:1"
           y="-396.25684"
           x="-171.34547"
           id="text8-6-1">
          <tspan
             id="tspan4-6-8"
             font-size="8.0156"
             y="-396.25684"
             x="-171.34547"
             style="font-style:normal;font-variant:normal;font-weight:normal;font-stretch:normal;font-size:8px;font-family:sans-serif;-inkscape-font-specification:sans-serif;fill:#000000;fill-opacity:0.58823529;stroke:none;stroke-width:0.99291384;stroke-opacity:1">TAC</tspan>
          <tspan
             id="tspan6-9-0"
             font-size="8.0156"
             stroke-miterlimit="10"
             y="-396.25684"
             x="-155.86693"
             style="font-style:normal;font-variant:normal;font-weight:bold;font-stretch:normal;font-size:8px;font-family:sans-serif;-inkscape-font-specification:'sans-serif Bold';fill:#000000;fill-opacity:0.58823529;stroke:none;stroke-width:0.33163321;stroke-miterlimit:10;stroke-opacity:1">Brd</tspan>
        </text>
      </g>
      <g
         id="g1213">
        <g
           style="fill:#000000;fill-opacity:0.58823529;stroke:none;stroke-opacity:0.58673473"
           transform="matrix(-0.31270731,0,0,-0.31270731,93.349727,434.45501)"
           id="marc-5-6">
          <g
             style="fill:#000000;fill-opacity:0.58823529;stroke:none;stroke-opacity:0.58673473"
             id="g1021-2-1">
            <path
               id="path1019-1-6"
               d="M 49.878,2.757 C 75.861,2.757 97,23.896 97,49.878 97,75.861 75.861,97 49.878,97 23.895,97 2.756,75.861 2.756,49.878 2.756,23.896 23.895,2.757 49.878,2.757 m 0,-3 c -27.682,0 -50.122,22.44 -50.122,50.121 C -0.244,77.56 22.196,100 49.878,100 77.559,100 100,77.561 100,49.878 100,22.198 77.559,-0.243 49.878,-0.243 Z"
               inkscape:connector-curvature="0"
               style="fill:#000000;fill-opacity:0.58823529;stroke:none;stroke-opacity:0.58673473" />
          </g>
        </g>
        <circle
           transform="scale(-1)"
           style="fill:none;fill-opacity:0.58823529;stroke:#010000;stroke-width:0.8560676;stroke-linejoin:round;stroke-miterlimit:10;stroke-opacity:0.58673471"
           stroke-miterlimit="10"
           cx="-83.182983"
           cy="-413.06927"
           r="4.351635"
           id="circle1024-8-2" />
        <polygon
           transform="matrix(-0.31270731,0,0,-0.31270731,93.349727,434.45501)"
           style="fill:none;fill-opacity:0.58823529;stroke:#010000;stroke-width:2.61560011;stroke-linejoin:round;stroke-miterlimit:10;stroke-opacity:0.58673471"
           stroke-miterlimit="10"
           points="60.384,44.672 74.539,20.156 88.694,44.672 "
           id="polygon1026-6-5" />
        <g
           style="fill:none;fill-opacity:0.58823529;stroke:#010000;stroke-opacity:0.58673471"
           transform="matrix(-0.31270731,0,0,-0.31270731,93.349727,434.45501)"
           id="fletcha-2-1">
          <g
             style="fill:none;fill-opacity:0.58823529;stroke:#010000;stroke-opacity:0.58673471"
             id="g1033-2-5">
            <path
               id="path1029-1-6"
               d="m 31.086,31.745 c 12.608,5.693 22.817,16.55 27.25,30.798 1.676,5.388 2.397,10.845 2.26,16.187"
               stroke-miterlimit="10"
               inkscape:connector-curvature="0"
               style="fill:none;fill-opacity:0.58823529;stroke:#010000;stroke-width:3;stroke-linecap:round;stroke-linejoin:round;stroke-miterlimit:10;stroke-opacity:0.58673471" />
            <polyline
               id="polyline1031-0-8"
               points="    37.223,44.662 29.319,30.625 45.429,30.799   "
               stroke-miterlimit="10"
               style="fill:none;fill-opacity:0.58823529;stroke:#010000;stroke-width:3;stroke-linecap:round;stroke-linejoin:round;stroke-miterlimit:10;stroke-opacity:0.58673471" />
          </g>
        </g>
        <text
           transform="scale(-1)"
           style="font-size:11.91496563px;fill:#000000;fill-opacity:0.58823529;stroke:none;stroke-width:0.99291384;stroke-opacity:1"
           y="-396.25684"
           x="-92.957047"
           id="text8-1-7">
          <tspan
             id="tspan4-9-3"
             font-size="8.0156"
             y="-396.25684"
             x="-92.957047"
             style="font-style:normal;font-variant:normal;font-weight:normal;font-stretch:normal;font-size:7.95880032px;font-family:sans-serif;-inkscape-font-specification:sans-serif;fill:#000000;fill-opacity:0.58823529;stroke:none;stroke-width:0.99291384;stroke-opacity:1">TAC</tspan>
          <tspan
             id="tspan6-0-6"
             font-size="8.0156"
             stroke-miterlimit="10"
             y="-396.25684"
             x="-77.478508"
             style="font-style:normal;font-variant:normal;font-weight:bold;font-stretch:normal;font-size:7.95880032px;font-family:sans-serif;-inkscape-font-specification:'sans-serif Bold';fill:#000000;fill-opacity:0.58823529;stroke:none;stroke-width:0.33163321;stroke-miterlimit:10;stroke-opacity:1">Brd</tspan>
        </text>
      </g>
    </g>
  </g>
</svg>
