<?xml version="1.0" encoding="UTF-8" standalone="no"?>
<svg
   xmlns:dc="http://purl.org/dc/elements/1.1/"
   xmlns:cc="http://creativecommons.org/ns#"
   xmlns:rdf="http://www.w3.org/1999/02/22-rdf-syntax-ns#"
   xmlns:svg="http://www.w3.org/2000/svg"
   xmlns="http://www.w3.org/2000/svg"
   xmlns:sodipodi="http://sodipodi.sourceforge.net/DTD/sodipodi-0.dtd"
   xmlns:inkscape="http://www.inkscape.org/namespaces/inkscape"
   width="233.90472"
   height="257.09445"
   id="svg3009"
   version="1.1"
   inkscape:version="0.92.3 (2405546, 2018-03-11)"
   sodipodi:docname="HB_HalfVertCourt_BenchRight_01.svg">
  <rect
     style="opacity:1;fill:#ffffff;fill-opacity:0.97969546;stroke:#000000;stroke-width:0.15123828;stroke-linejoin:round;stroke-miterlimit:4;stroke-dasharray:none;stroke-dashoffset:0;stroke-opacity:1;paint-order:markers fill stroke"
     id="rect5125"
     width="233.75348"
     height="256.94321"
     x="0.075619139"
     y="0.075619139" />
  <metadata
     id="metadata3031">
    <rdf:RDF>
      <cc:Work
         rdf:about="">
        <dc:format>image/svg+xml</dc:format>
        <dc:type
           rdf:resource="http://purl.org/dc/dcmitype/StillImage" />
        <dc:title />
      </cc:Work>
    </rdf:RDF>
  </metadata>
  <defs
     id="defs3029" />
  <sodipodi:namedview
     pagecolor="#ffffff"
     bordercolor="#666666"
     borderopacity="1"
     objecttolerance="10"
     gridtolerance="10"
     guidetolerance="10"
     inkscape:pageopacity="0"
     inkscape:pageshadow="2"
     inkscape:window-width="1920"
     inkscape:window-height="1017"
     id="namedview3027"
     showgrid="false"
     inkscape:zoom="2.7812866"
     inkscape:cx="77.944945"
     inkscape:cy="127.10919"
     inkscape:window-x="-8"
     inkscape:window-y="-8"
     inkscape:window-maximized="1"
     inkscape:current-layer="svg3009"
     inkscape:measure-start="126.56,21.393"
     inkscape:measure-end="126.01,64.2667" />
  <!-- Created with SVG-edit - http://svg-edit.googlecode.com/ -->
  <rect
     style="fill:#ffffff;fill-opacity:1;stroke:#060202;stroke-width:1;stroke-miterlimit:4;stroke-dasharray:none;stroke-opacity:1"
     id="rect3015"
     x="10.098773"
     y="11.823282"
     width="213.33333"
     height="213.33333" />
  <line
     style="stroke:#ffffff;stroke-width:1.06666672;stroke-opacity:1"
     id="line3019"
     x1="115.69877"
     y1="54.489948"
     x2="117.83211"
     y2="54.489948" />
  <path
     style="fill:#ffffff;stroke:#060202;stroke-width:1.06666672;stroke-dasharray:5.33333333, 5.33333333000000032;stroke-opacity:1;fill-opacity:1"
     inkscape:connector-curvature="0"
     id="path3025"
     d="m 10.098739,42.756616 a 96,96 0 0 0 96.000001,65.066664 h 32 a 96,96 0 0 0 85.33334,-65.066664" />
  <line
     style="stroke:#000000;stroke-width:1.06666672;stroke-opacity:1;fill:#000000;fill-opacity:1"
     id="line3021"
     x1="111.4321"
     y1="86.489952"
     x2="122.09877"
     y2="86.489952" />
  <path
     style="fill:#ffffff;fill-opacity:1;stroke:#060202;stroke-width:1.06666672;stroke-opacity:1"
     inkscape:connector-curvature="0"
     id="path3023"
     d="m 36.765435,11.823282 a 64,64 0 0 0 64.000005,64 h 32 a 64,64 0 0 0 64,-64" />
  <rect
     style="fill:#ffffff;fill-opacity:1;stroke:#060202;stroke-width:0.99825943;stroke-miterlimit:4;stroke-dasharray:none;stroke-opacity:1"
     id="rect3015-4"
     x="10.098063"
     y="-255.09335"
     width="213.33475"
     height="30.58338"
     transform="scale(1,-1)" />
  <line
     style="stroke:#060202;stroke-width:1.06666672;stroke-opacity:1;fill:#ffffff;fill-opacity:1"
     id="line3021-9"
     x1="218.72745"
     y1="178.24396"
     x2="229.39412"
     y2="178.24396" />
  <line
     style="fill:#ffffff;fill-opacity:1;stroke:#060202;stroke-width:2.13333344;stroke-opacity:1"
     id="line3017"
     x1="100.76543"
     y1="11.823282"
     x2="132.76544"
     y2="11.823282" />
  <line
     style="stroke:#060202;stroke-width:1.06666672;stroke-opacity:1;fill:#ffffff;fill-opacity:1"
     id="line3019-0-7"
     x1="115.69877"
     y1="54.489948"
     x2="117.83212"
     y2="54.489948" />
  <g
     id="g1005">
    <g
       id="g951">
      <circle
         id="circle1024"
         r="4.351635"
         cy="37.588009"
         cx="72.105042"
         stroke-miterlimit="10"
         style="fill:none;fill-opacity:0.58823529;stroke:#210b0b;stroke-width:0.8560676;stroke-linejoin:round;stroke-miterlimit:10;stroke-opacity:0.58673471" />
      <polygon
         id="polygon1026"
         points="60.384,44.672 74.539,20.156 88.694,44.672 "
         stroke-miterlimit="10"
         style="fill:none;fill-opacity:0.58823529;stroke:#210b0b;stroke-width:2.61560011;stroke-linejoin:round;stroke-miterlimit:10;stroke-opacity:0.58673471"
         transform="matrix(0.31270731,0,0,0.31270731,61.938301,16.20225)" />
      <g
         id="fletcha"
         transform="matrix(0.31270731,0,0,0.31270731,61.938301,16.20225)"
         style="fill:none;fill-opacity:0.58823529;stroke:#210b0b;stroke-opacity:0.58673471">
        <g
           id="g1033"
           style="fill:none;fill-opacity:0.58823529;stroke:#210b0b;stroke-opacity:0.58673471">
          <path
             style="fill:none;fill-opacity:0.58823529;stroke:#210b0b;stroke-width:3;stroke-linecap:round;stroke-linejoin:round;stroke-miterlimit:10;stroke-opacity:0.58673471"
             inkscape:connector-curvature="0"
             stroke-miterlimit="10"
             d="m 31.086,31.745 c 12.608,5.693 22.817,16.55 27.25,30.798 1.676,5.388 2.397,10.845 2.26,16.187"
             id="path1029" />
          <polyline
             style="fill:none;fill-opacity:0.58823529;stroke:#210b0b;stroke-width:3;stroke-linecap:round;stroke-linejoin:round;stroke-miterlimit:10;stroke-opacity:0.58673471"
             stroke-miterlimit="10"
             points="    37.223,44.662 29.319,30.625 45.429,30.799   "
             id="polyline1031" />
        </g>
      </g>
      <g
         id="marc"
         transform="matrix(0.31270731,0,0,0.31270731,61.938301,16.20225)"
         style="fill:#000000;fill-opacity:0.58823529;stroke:none;stroke-opacity:0.58673473">
        <g
           id="g1021"
           style="fill:#000000;fill-opacity:0.58823529;stroke:none;stroke-opacity:0.58673473">
          <path
             style="fill:#000000;fill-opacity:0.58823529;stroke:none;stroke-opacity:0.58673473"
             inkscape:connector-curvature="0"
             d="M 49.878,2.757 C 75.861,2.757 97,23.896 97,49.878 97,75.861 75.861,97 49.878,97 23.895,97 2.756,75.861 2.756,49.878 2.756,23.896 23.895,2.757 49.878,2.757 m 0,-3 c -27.682,0 -50.122,22.44 -50.122,50.121 C -0.244,77.56 22.196,100 49.878,100 77.559,100 100,77.561 100,49.878 100,22.198 77.559,-0.243 49.878,-0.243 Z"
             id="path1019" />
        </g>
      </g>
      <text
         id="text8-6"
         x="62.330982"
         y="54.400433"
         style="font-size:11.91496563px;fill:#000000;fill-opacity:0.58823529;stroke:none;stroke-width:0.99291384;stroke-opacity:1">
        <tspan
           style="font-style:normal;font-variant:normal;font-weight:normal;font-stretch:normal;font-size:8px;font-family:sans-serif;-inkscape-font-specification:sans-serif;fill:#000000;fill-opacity:0.58823529;stroke:none;stroke-width:0.99291384;stroke-opacity:1"
           x="62.330982"
           y="54.400433"
           font-size="8.0156"
           id="tspan4-6">TAC</tspan>
        <tspan
           style="font-style:normal;font-variant:normal;font-weight:bold;font-stretch:normal;font-size:8px;font-family:sans-serif;-inkscape-font-specification:'sans-serif Bold';fill:#000000;fill-opacity:0.58823529;stroke:none;stroke-width:0.33163321;stroke-miterlimit:10;stroke-opacity:1"
           x="77.809517"
           y="54.400433"
           stroke-miterlimit="10"
           font-size="8.0156"
           id="tspan6-9">Brd</tspan>
      </text>
    </g>
    <g
       id="g977">
      <g
         id="marc-5"
         transform="matrix(0.31270731,0,0,0.31270731,140.32673,16.202256)"
         style="fill:#000000;fill-opacity:0.58823529;stroke:none;stroke-opacity:0.58673473">
        <g
           id="g1021-2"
           style="fill:#000000;fill-opacity:0.58823529;stroke:none;stroke-opacity:0.58673473">
          <path
             style="fill:#000000;fill-opacity:0.58823529;stroke:none;stroke-opacity:0.58673473"
             inkscape:connector-curvature="0"
             d="M 49.878,2.757 C 75.861,2.757 97,23.896 97,49.878 97,75.861 75.861,97 49.878,97 23.895,97 2.756,75.861 2.756,49.878 2.756,23.896 23.895,2.757 49.878,2.757 m 0,-3 c -27.682,0 -50.122,22.44 -50.122,50.121 C -0.244,77.56 22.196,100 49.878,100 77.559,100 100,77.561 100,49.878 100,22.198 77.559,-0.243 49.878,-0.243 Z"
             id="path1019-1" />
        </g>
      </g>
      <circle
         id="circle1024-8"
         r="4.351635"
         cy="37.588005"
         cx="150.49347"
         stroke-miterlimit="10"
         style="fill:none;fill-opacity:0.58823529;stroke:#000000;stroke-width:0.8560676;stroke-linejoin:round;stroke-miterlimit:10;stroke-opacity:0.58673471" />
      <polygon
         id="polygon1026-6"
         points="74.539,20.156 88.694,44.672 60.384,44.672 "
         stroke-miterlimit="10"
         style="fill:none;fill-opacity:0.58823529;stroke:#000000;stroke-width:2.61560011;stroke-linejoin:round;stroke-miterlimit:10;stroke-opacity:0.58673471"
         transform="matrix(0.31270731,0,0,0.31270731,140.32673,16.202256)" />
      <g
         id="fletcha-2"
         transform="matrix(0.31270731,0,0,0.31270731,140.32673,16.202256)"
         style="fill:none;fill-opacity:0.58823529;stroke:#000000;stroke-opacity:0.58673471">
        <g
           id="g1033-2"
           style="fill:none;fill-opacity:0.58823529;stroke:#000000;stroke-opacity:0.58673471">
          <path
             style="fill:none;fill-opacity:0.58823529;stroke:#000000;stroke-width:3;stroke-linecap:round;stroke-linejoin:round;stroke-miterlimit:10;stroke-opacity:0.58673471"
             inkscape:connector-curvature="0"
             stroke-miterlimit="10"
             d="m 31.086,31.745 c 12.608,5.693 22.817,16.55 27.25,30.798 1.676,5.388 2.397,10.845 2.26,16.187"
             id="path1029-1" />
          <polyline
             style="fill:none;fill-opacity:0.58823529;stroke:#000000;stroke-width:3;stroke-linecap:round;stroke-linejoin:round;stroke-miterlimit:10;stroke-opacity:0.58673471"
             stroke-miterlimit="10"
             points="    37.223,44.662 29.319,30.625 45.429,30.799   "
             id="polyline1031-0" />
        </g>
      </g>
      <text
         id="text8-1"
         x="140.71941"
         y="54.400433"
         style="font-size:11.91496563px;fill:#000000;fill-opacity:0.58823529;stroke:none;stroke-width:0.99291384;stroke-opacity:1">
        <tspan
           style="font-style:normal;font-variant:normal;font-weight:normal;font-stretch:normal;font-size:7.95880032px;font-family:sans-serif;-inkscape-font-specification:sans-serif;fill:#000000;fill-opacity:0.58823529;stroke:none;stroke-width:0.99291384;stroke-opacity:1"
           x="140.71941"
           y="54.400433"
           font-size="8.0156"
           id="tspan4-9">TAC</tspan>
        <tspan
           style="font-style:normal;font-variant:normal;font-weight:bold;font-stretch:normal;font-size:7.95880032px;font-family:sans-serif;-inkscape-font-specification:'sans-serif Bold';fill:#000000;fill-opacity:0.58823529;stroke:none;stroke-width:0.33163321;stroke-miterlimit:10;stroke-opacity:1"
           x="156.19795"
           y="54.400433"
           stroke-miterlimit="10"
           font-size="8.0156"
           id="tspan6-0">Brd</tspan>
      </text>
    </g>
  </g>
</svg>
