<?xml version="1.0" encoding="UTF-8" standalone="no"?>
<!-- Created with Inkscape (http://www.inkscape.org/) -->

<svg
   xmlns:dc="http://purl.org/dc/elements/1.1/"
   xmlns:cc="http://creativecommons.org/ns#"
   xmlns:rdf="http://www.w3.org/1999/02/22-rdf-syntax-ns#"
   xmlns:svg="http://www.w3.org/2000/svg"
   xmlns="http://www.w3.org/2000/svg"
   xmlns:sodipodi="http://sodipodi.sourceforge.net/DTD/sodipodi-0.dtd"
   xmlns:inkscape="http://www.inkscape.org/namespaces/inkscape"
   width="100mm"
   height="100mm"
   viewBox="0 0 100 100"
   version="1.1"
   id="svg8"
   sodipodi:docname="Icon_Forward.svg"
   inkscape:version="0.92.3 (2405546, 2018-03-11)">
  <defs
     id="defs2" />
  <sodipodi:namedview
     id="base"
     pagecolor="#ffffff"
     bordercolor="#666666"
     borderopacity="1.0"
     inkscape:pageopacity="0.0"
     inkscape:pageshadow="2"
     inkscape:zoom="0.98994949"
     inkscape:cx="-91.612476"
     inkscape:cy="125.16545"
     inkscape:document-units="mm"
     inkscape:current-layer="layer1"
     showgrid="false"
     inkscape:window-width="1600"
     inkscape:window-height="837"
     inkscape:window-x="-8"
     inkscape:window-y="-8"
     inkscape:window-maximized="1" />
  <metadata
     id="metadata5">
    <rdf:RDF>
      <cc:Work
         rdf:about="">
        <dc:format>image/svg+xml</dc:format>
        <dc:type
           rdf:resource="http://purl.org/dc/dcmitype/StillImage" />
        <dc:title></dc:title>
      </cc:Work>
    </rdf:RDF>
  </metadata>
  <g
     inkscape:label="Ebene 1"
     inkscape:groupmode="layer"
     id="layer1"
     transform="translate(-26.060122,-87.284518)">
    <rect
       style="fill:none;fill-opacity:1;stroke:#9f6060;stroke-width:0;stroke-miterlimit:4;stroke-dasharray:none;stroke-opacity:1"
       id="rect1453"
       width="99.613289"
       height="99.613289"
       x="26.520748"
       y="87.477875" />
    <g
       id="g7892"
       transform="translate(-0.19031741,-0.80034283)">
      <path
         transform="matrix(0.45680492,-1.7532319,0.82071648,0.97583631,-89.148669,138.16373)"
         inkscape:transform-center-y="-28.08455"
         inkscape:transform-center-x="-11.711493"
         d="M 84.85942,152.27221 53.885627,133.80628 85.364488,116.21516 Z"
         inkscape:randomized="0"
         inkscape:rounded="0"
         inkscape:flatsided="true"
         sodipodi:arg2="2.1084016"
         sodipodi:arg1="1.0612041"
         sodipodi:r2="10.409796"
         sodipodi:r1="20.819593"
         sodipodi:cy="134.09789"
         sodipodi:cx="74.703178"
         sodipodi:sides="3"
         id="path4565"
         style="fill:none;fill-opacity:1;stroke:#ffffff;stroke-width:4.37052107;stroke-linejoin:round;stroke-miterlimit:4;stroke-dasharray:none;stroke-dashoffset:8.99792194;stroke-opacity:1"
         sodipodi:type="star" />
      <path
         transform="matrix(0.45680492,-1.7532319,0.82071649,0.9758363,-55.926837,138.16374)"
         inkscape:transform-center-y="-28.08455"
         inkscape:transform-center-x="-11.711493"
         d="M 84.85942,152.27221 53.885627,133.80628 85.364488,116.21516 Z"
         inkscape:randomized="0"
         inkscape:rounded="0"
         inkscape:flatsided="true"
         sodipodi:arg2="2.1084016"
         sodipodi:arg1="1.0612041"
         sodipodi:r2="10.409796"
         sodipodi:r1="20.819593"
         sodipodi:cy="134.09789"
         sodipodi:cx="74.703178"
         sodipodi:sides="3"
         id="path4565-9"
         style="fill:none;fill-opacity:1;stroke:#ffffff;stroke-width:4.37052107;stroke-linejoin:round;stroke-miterlimit:4;stroke-dasharray:none;stroke-dashoffset:8.99792194;stroke-opacity:1"
         sodipodi:type="star" />
    </g>
  </g>
</svg>
