<?xml version="1.0" encoding="UTF-8" standalone="no"?>
<!-- Created with Inkscape (http://www.inkscape.org/) -->

<svg
   xmlns:dc="http://purl.org/dc/elements/1.1/"
   xmlns:cc="http://creativecommons.org/ns#"
   xmlns:rdf="http://www.w3.org/1999/02/22-rdf-syntax-ns#"
   xmlns:svg="http://www.w3.org/2000/svg"
   xmlns="http://www.w3.org/2000/svg"
   xmlns:sodipodi="http://sodipodi.sourceforge.net/DTD/sodipodi-0.dtd"
   xmlns:inkscape="http://www.inkscape.org/namespaces/inkscape"
   width="100mm"
   height="100mm"
   viewBox="0 0 100 100"
   version="1.1"
   id="svg8"
   sodipodi:docname="Icon_HF.svg"
   inkscape:version="0.92.3 (2405546, 2018-03-11)">
  <defs
     id="defs2" />
  <sodipodi:namedview
     id="base"
     pagecolor="#ffffff"
     bordercolor="#666666"
     borderopacity="1.0"
     inkscape:pageopacity="0.0"
     inkscape:pageshadow="2"
     inkscape:zoom="0.98994949"
     inkscape:cx="-7.3871395"
     inkscape:cy="153.67294"
     inkscape:document-units="mm"
     inkscape:current-layer="layer1"
     showgrid="false"
     inkscape:window-width="1600"
     inkscape:window-height="837"
     inkscape:window-x="-8"
     inkscape:window-y="-8"
     inkscape:window-maximized="1" />
  <metadata
     id="metadata5">
    <rdf:RDF>
      <cc:Work
         rdf:about="">
        <dc:format>image/svg+xml</dc:format>
        <dc:type
           rdf:resource="http://purl.org/dc/dcmitype/StillImage" />
        <dc:title />
      </cc:Work>
    </rdf:RDF>
  </metadata>
  <g
     inkscape:label="Ebene 1"
     inkscape:groupmode="layer"
     id="layer1"
     transform="translate(-26.060122,-87.284518)">
    <rect
       style="fill:none;stroke:#9f6060;stroke-width:0;stroke-opacity:1;stroke-miterlimit:4;stroke-dasharray:none"
       id="rect1453"
       width="99.613289"
       height="99.613289"
       x="26.253479"
       y="87.477875" />
    <path
       style="fill:none;stroke:#ffffff;stroke-width:3.401;stroke-linecap:round;stroke-linejoin:bevel;stroke-miterlimit:4;stroke-dasharray:none;stroke-dashoffset:1.6206001;stroke-opacity:1"
       d="M 61.876752,88.423467 H 50.5808 V 137.5724 h 50.95865 V 88.423467 h -12.592 a 13.557077,13.557077 0 0 1 0.01809,0.505912 13.557077,13.557077 0 0 1 -0.0677,1.353405 13.557077,13.557077 0 0 1 -0.202573,1.33997 13.557077,13.557077 0 0 1 -0.335378,1.313099 13.557077,13.557077 0 0 1 -0.464571,1.27279 13.557077,13.557077 0 0 1 -0.589114,1.220081 13.557077,13.557077 0 0 1 -0.708483,1.155485 13.557077,13.557077 0 0 1 -0.820105,1.079003 13.557077,13.557077 0 0 1 -0.923975,0.991154 13.557077,13.557077 0 0 1 -1.018024,0.89452 13.557077,13.557077 0 0 1 -1.102259,0.788584 13.557077,13.557077 0 0 1 -1.175121,0.67386 13.557077,13.557077 0 0 1 -1.237136,0.55397 13.557077,13.557077 0 0 1 -1.286224,0.42685 13.557077,13.557077 0 0 1 -1.321885,0.29714 13.557077,13.557077 0 0 1 -1.345655,0.16329 13.557077,13.557077 0 0 1 -0.958596,0.0336 13.557077,13.557077 0 0 1 -1.353407,-0.0677 13.557077,13.557077 0 0 1 -1.339969,-0.20206 13.557077,13.557077 0 0 1 -1.313098,-0.33538 13.557077,13.557077 0 0 1 -1.273307,-0.46457 13.557077,13.557077 0 0 1 -1.220081,-0.58963 13.557077,13.557077 0 0 1 -1.155486,-0.70848 13.557077,13.557077 0 0 1 -1.078487,-0.820105 13.557077,13.557077 0 0 1 -0.991669,-0.923458 13.557077,13.557077 0 0 1 -0.894519,-1.018026 13.557077,13.557077 0 0 1 -0.788067,-1.102775 13.557077,13.557077 0 0 1 -0.674377,-1.175122 13.557077,13.557077 0 0 1 -0.553453,-1.237134 13.557077,13.557077 0 0 1 -0.427366,-1.285709 13.557077,13.557077 0 0 1 -0.296622,-1.3224 13.557077,13.557077 0 0 1 -0.163298,-1.345138 13.557077,13.557077 0 0 1 -0.03411,-0.959114 13.557077,13.557077 0 0 1 0.02532,-0.505912 z"
       id="path5258"
       inkscape:connector-curvature="0" />
    <path
       style="fill:none;stroke:#ffffff;stroke-width:3.401;stroke-linecap:round;stroke-linejoin:bevel;stroke-miterlimit:4;stroke-dasharray:none;stroke-dashoffset:1.6206001;stroke-opacity:1"
       d="m 62.528393,88.423467 a 13.557077,13.557077 0 0 0 -0.02532,0.505912 13.557077,13.557077 0 0 0 0.03411,0.959114 13.557077,13.557077 0 0 0 0.163298,1.345138 13.557077,13.557077 0 0 0 0.296622,1.3224 13.557077,13.557077 0 0 0 0.427365,1.285709 13.557077,13.557077 0 0 0 0.553453,1.237134 13.557077,13.557077 0 0 0 0.674378,1.175122 13.557077,13.557077 0 0 0 0.788067,1.102775 13.557077,13.557077 0 0 0 0.894519,1.018026 13.557077,13.557077 0 0 0 0.991669,0.923458 13.557077,13.557077 0 0 0 1.078486,0.820105 13.557077,13.557077 0 0 0 1.155486,0.70848 13.557077,13.557077 0 0 0 1.220081,0.58963 13.557077,13.557077 0 0 0 1.273307,0.46457 13.557077,13.557077 0 0 0 1.313098,0.33538 13.557077,13.557077 0 0 0 1.339969,0.20206 13.557077,13.557077 0 0 0 1.353408,0.0677 13.557077,13.557077 0 0 0 0.958596,-0.0336 13.557077,13.557077 0 0 0 1.345655,-0.16329 13.557077,13.557077 0 0 0 1.321884,-0.29714 13.557077,13.557077 0 0 0 1.286225,-0.42685 13.557077,13.557077 0 0 0 1.237136,-0.55397 13.557077,13.557077 0 0 0 1.17512,-0.67386 13.557077,13.557077 0 0 0 1.10226,-0.788584 13.557077,13.557077 0 0 0 1.018024,-0.89452 13.557077,13.557077 0 0 0 0.923975,-0.991154 13.557077,13.557077 0 0 0 0.820105,-1.079003 13.557077,13.557077 0 0 0 0.708483,-1.155485 13.557077,13.557077 0 0 0 0.589113,-1.220081 13.557077,13.557077 0 0 0 0.464571,-1.27279 13.557077,13.557077 0 0 0 0.335378,-1.313099 13.557077,13.557077 0 0 0 0.202573,-1.33997 13.557077,13.557077 0 0 0 0.0677,-1.353405 13.557077,13.557077 0 0 0 -0.01809,-0.505912 z"
       id="rect5232"
       inkscape:connector-curvature="0" />
    <rect
       style="fill:none;stroke:#f6ffff;stroke-width:3.40100011;stroke-linecap:round;stroke-linejoin:bevel;stroke-miterlimit:4;stroke-dasharray:10.20300034, 10.20300033999999911;stroke-dashoffset:2.38070008;stroke-opacity:1"
       id="rect5232-1"
       width="50.959026"
       height="49.148979"
       x="50.580608"
       y="137.57237" />
    <path
       inkscape:connector-curvature="0"
       style="fill:none;stroke:#f6ffff;stroke-width:3.40100011;stroke-linecap:round;stroke-linejoin:bevel;stroke-miterlimit:4;stroke-dasharray:10.20300034, 10.20300033999999911;stroke-dashoffset:1.02030003;stroke-opacity:1"
       d="m 62.528386,186.82696 a 13.557077,13.557077 0 0 1 -0.02532,-0.50591 13.557077,13.557077 0 0 1 0.03411,-0.95912 13.557077,13.557077 0 0 1 0.163298,-1.34513 13.557077,13.557077 0 0 1 0.296622,-1.3224 13.557077,13.557077 0 0 1 0.427366,-1.28571 13.557077,13.557077 0 0 1 0.553452,-1.23714 13.557077,13.557077 0 0 1 0.674378,-1.17512 13.557077,13.557077 0 0 1 0.788067,-1.10278 13.557077,13.557077 0 0 1 0.894519,-1.01802 13.557077,13.557077 0 0 1 0.991669,-0.92346 13.557077,13.557077 0 0 1 1.078487,-0.82011 13.557077,13.557077 0 0 1 1.155486,-0.70849 13.557077,13.557077 0 0 1 1.220081,-0.58962 13.557077,13.557077 0 0 1 1.273307,-0.46457 13.557077,13.557077 0 0 1 1.313098,-0.33538 13.557077,13.557077 0 0 1 1.339969,-0.20206 13.557077,13.557077 0 0 1 1.353407,-0.0677 13.557077,13.557077 0 0 1 0.958596,0.0336 13.557077,13.557077 0 0 1 1.345655,0.1633 13.557077,13.557077 0 0 1 1.321885,0.29714 13.557077,13.557077 0 0 1 1.286224,0.42685 13.557077,13.557077 0 0 1 1.237136,0.55397 13.557077,13.557077 0 0 1 1.175121,0.67386 13.557077,13.557077 0 0 1 1.102259,0.78859 13.557077,13.557077 0 0 1 1.018024,0.89452 13.557077,13.557077 0 0 1 0.923975,0.99115 13.557077,13.557077 0 0 1 0.820106,1.07901 13.557077,13.557077 0 0 1 0.708482,1.15548 13.557077,13.557077 0 0 1 0.589113,1.22008 13.557077,13.557077 0 0 1 0.464571,1.27279 13.557077,13.557077 0 0 1 0.335378,1.3131 13.557077,13.557077 0 0 1 0.202573,1.33997 13.557077,13.557077 0 0 1 0.0677,1.35341 13.557077,13.557077 0 0 1 -0.0181,0.50591 z"
       id="rect5232-8" />
  </g>
</svg>
