<?xml version="1.0" encoding="utf-8"?>
<!-- Generator: Adobe Illustrator 16.0.0, SVG Export Plug-In . SVG Version: 6.00 Build 0)  -->
<!DOCTYPE svg PUBLIC "-//W3C//DTD SVG 1.1//EN" "http://www.w3.org/Graphics/SVG/1.1/DTD/svg11.dtd">
<svg version="1.1" xmlns="http://www.w3.org/2000/svg" xmlns:xlink="http://www.w3.org/1999/xlink" x="0px" y="0px" width="100px"
	 height="100px" viewBox="0 0 100 100" enable-background="new 0 0 100 100" xml:space="preserve">
<g id="marc">
	<g>
		<path fill="#FFFFFF" d="M49.878,98.5c-26.81,0-48.622-21.812-48.622-48.622c0-26.81,21.812-48.621,48.622-48.621
			c26.811,0,48.622,21.812,48.622,48.621C98.5,76.688,76.688,98.5,49.878,98.5z"/>
		<path d="M49.878,2.757C75.861,2.757,97,23.896,97,49.878C97,75.861,75.861,97,49.878,97S2.756,75.861,2.756,49.878
			C2.756,23.896,23.895,2.757,49.878,2.757 M49.878-0.243c-27.682,0-50.122,22.44-50.122,50.121
			c0,27.682,22.44,50.122,50.122,50.122C77.559,100,100,77.561,100,49.878C100,22.198,77.559-0.243,49.878-0.243L49.878-0.243z"/>
	</g>
</g>
<g id="objects">
	
		<circle fill="#FFFFFF" stroke="#000000" stroke-width="2.7376" stroke-linejoin="round" stroke-miterlimit="10" cx="32.512" cy="68.389" r="13.916"/>
	<polygon fill="none" stroke="#000000" stroke-width="2.6156" stroke-linejoin="round" stroke-miterlimit="10" points="
		60.384,44.672 74.539,20.156 88.694,44.672 	"/>
</g>
<g id="fletcha">
	<g>
		<path fill="none" stroke="#000000" stroke-width="3" stroke-linecap="round" stroke-linejoin="round" stroke-miterlimit="10" d="
			M31.086,31.745c12.608,5.693,22.817,16.55,27.25,30.798c1.676,5.388,2.397,10.845,2.26,16.187"/>
		
			<polyline fill="none" stroke="#000000" stroke-width="3" stroke-linecap="round" stroke-linejoin="round" stroke-miterlimit="10" points="
			37.223,44.662 29.319,30.625 45.429,30.799 		"/>
	</g>
</g>
</svg>
