<?xml version="1.0" encoding="UTF-8" standalone="no"?>
<svg
   xmlns:dc="http://purl.org/dc/elements/1.1/"
   xmlns:cc="http://creativecommons.org/ns#"
   xmlns:rdf="http://www.w3.org/1999/02/22-rdf-syntax-ns#"
   xmlns:svg="http://www.w3.org/2000/svg"
   xmlns="http://www.w3.org/2000/svg"
   xmlns:sodipodi="http://sodipodi.sourceforge.net/DTD/sodipodi-0.dtd"
   xmlns:inkscape="http://www.inkscape.org/namespaces/inkscape"
   width="233.90472"
   height="449.811"
   id="svg3009"
   version="1.1"
   inkscape:version="0.92.3 (2405546, 2018-03-11)"
   sodipodi:docname="HB_FullCourt_BenchLeft_00_low.svg"
   viewBox="0 0 23.392811 44.985599">
  <rect
     style="opacity:1;fill:#000000;fill-opacity:0.97969546;stroke:#000000;stroke-width:0.20003973;stroke-linejoin:round;stroke-miterlimit:4;stroke-dasharray:none;stroke-dashoffset:0;stroke-opacity:1;paint-order:markers fill stroke"
     id="rect5125"
     width="233.70468"
     height="449.61096"
     x="0.10001986"
     y="0.10001986" />
  <metadata
     id="metadata3031">
    <rdf:RDF>
      <cc:Work
         rdf:about="">
        <dc:format>image/svg+xml</dc:format>
        <dc:type
           rdf:resource="http://purl.org/dc/dcmitype/StillImage" />
        <dc:title></dc:title>
      </cc:Work>
    </rdf:RDF>
  </metadata>
  <defs
     id="defs3029" />
  <sodipodi:namedview
     pagecolor="#ffffff"
     bordercolor="#666666"
     borderopacity="1"
     objecttolerance="10"
     gridtolerance="10"
     guidetolerance="10"
     inkscape:pageopacity="0"
     inkscape:pageshadow="2"
     inkscape:window-width="1920"
     inkscape:window-height="1017"
     id="namedview3027"
     showgrid="false"
     inkscape:zoom="0.12291666"
     inkscape:cx="1478.188"
     inkscape:cy="-1922.8319"
     inkscape:window-x="-8"
     inkscape:window-y="-8"
     inkscape:window-maximized="1"
     inkscape:current-layer="svg3009"
     inkscape:measure-start="126.56,21.393"
     inkscape:measure-end="126.01,64.2667"
     scale-x="0.10001"
     units="px" />
  <!-- Created with SVG-edit - http://svg-edit.googlecode.com/ -->
  <rect
     style="fill:#91bdfc;fill-opacity:1;stroke:#ffffff;stroke-width:1.06666672;stroke-opacity:1"
     id="rect3015"
     x="10.285731"
     y="11.823282"
     width="213.33333"
     height="213.33333" />
  <line
     style="stroke:#ffffff;stroke-width:1.06666672;stroke-opacity:1"
     id="line3019"
     x1="115.88572"
     y1="54.489948"
     x2="118.01906"
     y2="54.489948" />
  <line
     style="stroke:#ffffff;stroke-width:1.06666672;stroke-opacity:1"
     id="line3021"
     x1="111.61905"
     y1="86.489952"
     x2="122.28572"
     y2="86.489952" />
  <path
     style="fill:none;stroke:#ffffff;stroke-width:1.06666672;stroke-dasharray:5.33333333, 5.33333333;stroke-opacity:1"
     inkscape:connector-curvature="0"
     id="path3025"
     d="m 10.2857,42.756616 a 96,96 0 0 0 96,65.066664 h 32 a 96,96 0 0 0 85.33334,-65.066664" />
  <path
     style="fill:#91bdfc;fill-opacity:1;stroke:#ffffff;stroke-width:1.06666672;stroke-opacity:1"
     inkscape:connector-curvature="0"
     id="path3023"
     d="m 36.952396,11.823282 a 64,64 0 0 0 64.000004,64 h 32 a 64,64 0 0 0 64,-64" />
  <rect
     style="fill:#91bdfc;fill-opacity:1;stroke:#ffffff;stroke-width:1.06666672;stroke-opacity:1"
     id="rect3015-4"
     x="10.285731"
     y="-438.2233"
     width="213.33333"
     height="213.33333"
     transform="scale(1,-1)" />
  <line
     style="stroke:#000000;stroke-width:1.06666672"
     id="line3019-9"
     x1="115.88572"
     y1="395.55664"
     x2="118.01906"
     y2="395.55664" />
  <line
     style="stroke:#ffffff;stroke-width:1.06666672;stroke-opacity:1"
     id="line3021-4"
     x1="111.61905"
     y1="363.55664"
     x2="122.28572"
     y2="363.55664" />
  <path
     style="fill:#91bdfc;fill-opacity:1;stroke:#ffffff;stroke-width:1.06666672;stroke-opacity:1"
     inkscape:connector-curvature="0"
     id="path3023-8"
     d="m 36.952397,438.22329 a 64,64 0 0 1 64.000003,-64 h 32 a 64,64 0 0 1 64,64" />
  <line
     style="stroke:#ffffff;stroke-width:2.13333344;stroke-opacity:1"
     id="line3017-0"
     x1="100.95239"
     y1="438.2233"
     x2="132.95239"
     y2="438.2233" />
  <path
     style="fill:none;stroke:#ffffff;stroke-width:1.06700003;stroke-miterlimit:4;stroke-dasharray:5.33499972, 5.33499972;stroke-dashoffset:0;stroke-opacity:1"
     inkscape:connector-curvature="0"
     id="path3025-8"
     d="m 10.2857,407.28995 a 96,96 0 0 1 96,-65.06666 h 32 a 96,96 0 0 1 85.33334,65.06666" />
  <line
     style="stroke:#ffffff;stroke-width:1.06666672;stroke-opacity:1"
     id="line3021-9"
     x1="4.7274461"
     y1="178.24396"
     x2="15.394118"
     y2="178.24396" />
  <line
     style="stroke:#ffffff;stroke-width:1.06666672;stroke-opacity:1"
     id="line3021-9-6"
     x1="4.8274674"
     y1="271.64996"
     x2="15.494124"
     y2="271.64996" />
  <circle
     style="opacity:1;fill:#ffffff;fill-opacity:0.97969546;stroke:#ffffff;stroke-width:0.166348;stroke-linejoin:round;stroke-miterlimit:4;stroke-dasharray:none;stroke-dashoffset:0;stroke-opacity:1;paint-order:markers fill stroke"
     id="path5188"
     cx="116.95235"
     cy="225.00803"
     r="29.916826" />
  <line
     style="stroke:#ffffff;stroke-width:1.06666672;stroke-opacity:1"
     id="line3019-0"
     x1="115.88568"
     y1="395.19925"
     x2="118.01903"
     y2="395.19925" />
  <line
     style="fill:#ffffff;fill-opacity:1;stroke:#ffffff;stroke-width:2.13333344;stroke-opacity:1"
     id="line3017"
     x1="100.95239"
     y1="11.823282"
     x2="132.95239"
     y2="11.823282" />
  <g
     id="g897"
     transform="translate(-0.75952033,-1.8368729)">
    <g
       id="text"
       transform="translate(97.641367,202.6759)">
      <rect
         id="rect2"
         height="14.16"
         width="43.555"
         y="32.426998"
         x="-1.707"
         style="fill:none" />
      <text
         id="text8"
         transform="translate(5.8188,38.1973)">
        <tspan
           id="tspan4"
           font-size="8.0156"
           y="0"
           x="0"
           style="font-size:8.0156002px;font-family:HelveticaLTStd-Light">TAC</tspan>
        <tspan
           id="tspan6"
           font-size="8.0156"
           stroke-miterlimit="10"
           y="0"
           x="15.589"
           style="font-size:8.0156002px;font-family:HelveticaLTStd-Light;stroke:#000000;stroke-width:0.33399999;stroke-miterlimit:10">Brd</tspan>
      </text>
    </g>
    <g
       id="linees_logo"
       transform="translate(97.641367,202.6759)">
      <circle
         id="circle11"
         r="3.924"
         cy="21.101"
         cx="15.123"
         stroke-miterlimit="10"
         style="fill:none;stroke:#000000;stroke-width:1.00189996;stroke-linejoin:round;stroke-miterlimit:10" />
      <polygon
         id="polygon13"
         points="30.962,14.415 22.981,14.415 26.972,7.502 "
         stroke-miterlimit="10"
         style="fill:none;stroke:#000000;stroke-width:1.00189996;stroke-linejoin:round;stroke-miterlimit:10" />
      <g
         id="g19">
        <path
           id="path15"
           d="m 14.72,10.77 c 3.555,1.604 6.433,4.666 7.683,8.683 0.473,1.519 0.676,3.058 0.638,4.563"
           stroke-miterlimit="10"
           inkscape:connector-curvature="0"
           style="fill:none;stroke:#000000;stroke-width:1.00189996;stroke-linecap:round;stroke-linejoin:round;stroke-miterlimit:10" />
        <polyline
           id="polyline17"
           points="    16.451,14.412 14.222,10.454 18.764,10.503   "
           stroke-miterlimit="10"
           style="fill:none;stroke:#000000;stroke-width:1.00189996;stroke-linecap:round;stroke-linejoin:round;stroke-miterlimit:10" />
      </g>
      <g
         id="g23">
        <path
           id="path21"
           d="m 20.019,2.753 c 7.24,0 13.131,5.89 13.131,13.129 0,7.239 -5.891,13.13 -13.131,13.13 -7.24,0 -13.13,-5.891 -13.13,-13.13 0,-7.239 5.89,-13.129 13.13,-13.129 m 0,-1.002 c -7.805,0 -14.132,6.327 -14.132,14.131 0,7.804 6.327,14.132 14.132,14.132 7.805,0 14.133,-6.328 14.133,-14.132 0,-7.804 -6.329,-14.131 -14.133,-14.131 z"
           inkscape:connector-curvature="0" />
      </g>
    </g>
  </g>
  <path
     style="fill:#91bdfc;fill-opacity:1;stroke:#91bdfc;stroke-width:0;stroke-linejoin:round;stroke-miterlimit:4;stroke-dasharray:none;stroke-dashoffset:8.99792194;stroke-opacity:1"
     d=""
     id="path850"
     inkscape:connector-curvature="0" />
  <line
     style="stroke:#ffffff;stroke-width:1.06666672;stroke-opacity:1"
     id="line3019-0-7"
     x1="115.82904"
     y1="52.962399"
     x2="117.96239"
     y2="52.962399" />
</svg>
