<?xml version="1.0" encoding="UTF-8" standalone="no"?>
<!-- Created with Inkscape (http://www.inkscape.org/) -->

<svg
   xmlns:dc="http://purl.org/dc/elements/1.1/"
   xmlns:cc="http://creativecommons.org/ns#"
   xmlns:rdf="http://www.w3.org/1999/02/22-rdf-syntax-ns#"
   xmlns:svg="http://www.w3.org/2000/svg"
   xmlns="http://www.w3.org/2000/svg"
   xmlns:sodipodi="http://sodipodi.sourceforge.net/DTD/sodipodi-0.dtd"
   xmlns:inkscape="http://www.inkscape.org/namespaces/inkscape"
   width="100mm"
   height="100mm"
   viewBox="0 0 100 100"
   version="1.1"
   id="svg8"
   sodipodi:docname="Icon_Undo.svg"
   inkscape:version="0.92.3 (2405546, 2018-03-11)">
  <defs
     id="defs2" />
  <sodipodi:namedview
     id="base"
     pagecolor="#ffffff"
     bordercolor="#666666"
     borderopacity="1.0"
     inkscape:pageopacity="0.0"
     inkscape:pageshadow="2"
     inkscape:zoom="1.4"
     inkscape:cx="141.46207"
     inkscape:cy="147.12587"
     inkscape:document-units="mm"
     inkscape:current-layer="layer1"
     showgrid="false"
     inkscape:window-width="1600"
     inkscape:window-height="837"
     inkscape:window-x="-8"
     inkscape:window-y="-8"
     inkscape:window-maximized="1" />
  <metadata
     id="metadata5">
    <rdf:RDF>
      <cc:Work
         rdf:about="">
        <dc:format>image/svg+xml</dc:format>
        <dc:type
           rdf:resource="http://purl.org/dc/dcmitype/StillImage" />
        <dc:title></dc:title>
      </cc:Work>
    </rdf:RDF>
  </metadata>
  <g
     inkscape:label="Ebene 1"
     inkscape:groupmode="layer"
     id="layer1"
     transform="translate(-26.060122,-87.284518)">
    <rect
       style="fill:none;stroke:#9f6060;stroke-width:0;stroke-miterlimit:4;stroke-dasharray:none;stroke-opacity:1"
       id="rect1453"
       width="99.613289"
       height="99.613289"
       x="26.449974"
       y="87.477875" />
    <g
       id="g1409"
       transform="matrix(-1,0,0,1,152.78051,0)"
       style="stroke:#ffffff;stroke-opacity:1">
      <g
         transform="matrix(1.0738658,0,0,1.0738658,-6.0412602,-11.350338)"
         style="fill:none;fill-opacity:1;stroke:#ffffff;stroke-opacity:1"
         id="g5984">
        <path
           style="fill:none;fill-opacity:1;stroke:#ffffff;stroke-width:7.13999987;stroke-linecap:round;stroke-linejoin:miter;stroke-miterlimit:4;stroke-dasharray:none;stroke-opacity:1"
           d="m 112.8906,135.28861 5.91205,-14.28694"
           id="path5950"
           inkscape:connector-curvature="0" />
        <path
           style="fill:none;fill-opacity:1;stroke:#ffffff;stroke-width:7.13999987;stroke-linecap:round;stroke-linejoin:miter;stroke-miterlimit:4;stroke-dasharray:none;stroke-opacity:1"
           d="m 112.8906,135.28861 -12.3614,-9.2879"
           id="path5950-8"
           inkscape:connector-curvature="0" />
      </g>
      <path
         inkscape:connector-curvature="0"
         id="path6007"
         d="M 70.001285,179.14086 A 42.0472,42.0472 0 0 1 31.222556,137.22089 42.0472,42.0472 0 0 1 73.26976,95.173682 42.0472,42.0472 0 0 1 115.18809,133.93147"
         style="fill:none;fill-opacity:1;stroke:#ffffff;stroke-width:7.66740179;stroke-linecap:round;stroke-linejoin:bevel;stroke-miterlimit:4;stroke-dasharray:none;stroke-dashoffset:6.12510252;stroke-opacity:1" />
    </g>
  </g>
</svg>
